{
	"info": {
		"_postman_id": "32ae5b58-1155-4ea5-9292-e1b845fb3f17",
		"name": "flask api",
		"schema": "https://schema.getpostman.com/json/collection/v2.1.0/collection.json"
	},
	"item": [
		{
			"name": "get user",
			"request": {
				"method": "GET",
				"header": [],
				"url": {
					"raw": "http://127.0.0.1:5000/user",
					"protocol": "http",
					"host": [
						"127",
						"0",
						"0",
						"1"
					],
					"port": "5000",
					"path": [
						"user"
					]
				},
				"description": "Get all the users"
			},
			"response": []
		},
		{
			"name": "new user",
			"request": {
				"method": "POST",
				"header": [],
				"body": {
					"mode": "raw",
					"raw": "{\n    \"email\": \"qwerty6@gmail.com\",\n    \"password\":\"qwerty6\",\n    \"confirm password\": \"qwerty6\",\n    \"username\": \"qwerty6\"\n  }",
					"options": {
						"raw": {
							"language": "json"
						}
					}
				},
				"url": {
					"raw": "http://127.0.0.1:5000/user",
					"protocol": "http",
					"host": [
						"127",
						"0",
						"0",
						"1"
					],
					"port": "5000",
					"path": [
						"user"
					]
				}
			},
			"response": []
		},
		{
			"name": "user login",
			"request": {
				"method": "POST",
				"header": [],
				"body": {
					"mode": "raw",
					"raw": "{\n\"email\": \"qwerty3@gmail.com\",\n\"password\":\"qwerty3\"\n}",
					"options": {
						"raw": {
							"language": "json"
						}
					}
				},
				"url": {
					"raw": "http://127.0.0.1:5000/login",
					"protocol": "http",
					"host": [
						"127",
						"0",
						"0",
						"1"
					],
					"port": "5000",
					"path": [
						"login"
					]
				}
			},
			"response": []
		},
		{
			"name": "change account password",
			"request": {
				"auth": {
					"type": "bearer",
					"bearer": [
						{
							"key": "token",
							"value": "eyJ0eXAiOiJKV1QiLCJhbGciOiJIUzI1NiJ9.eyJpYXQiOjE1ODU4MjA3NjgsIm5iZiI6MTU4NTgyMDc2OCwianRpIjoiM2MwZmEwMzEtN2M1Yy00MTNmLWIzNGYtNWZlM2Y3MzdjYmM4IiwiZXhwIjoxNTg1OTA3MTY4LCJpZGVudGl0eSI6IjYiLCJmcmVzaCI6ZmFsc2UsInR5cGUiOiJhY2Nlc3MifQ.mMNLlUDMG1Xz7jc1OpB7ppac--lvBKqdPShnSokDJvE",
							"type": "string"
						}
					]
				},
				"method": "PUT",
				"header": [],
				"body": {
					"mode": "raw",
					"raw": "{\n\t\"old_password\":\"qwerty33\",\n\t\"new_password\":\"qwerty3\",\n\t\"confirm_password\":\"qwerty3\"\n}",
					"options": {
						"raw": {
							"language": "json"
						}
					}
				},
				"url": {
					"raw": "http://127.0.0.1:5000/user/9",
					"protocol": "http",
					"host": [
						"127",
						"0",
						"0",
						"1"
					],
					"port": "5000",
					"path": [
						"user",
						"9"
					]
				}
			},
			"response": []
		},
		{
			"name": "delete user account",
			"request": {
				"auth": {
					"type": "bearer",
					"bearer": [
						{
							"key": "token",
							"value": "eyJ0eXAiOiJKV1QiLCJhbGciOiJIUzI1NiJ9.eyJpYXQiOjE1ODUxOTU4MjEsIm5iZiI6MTU4NTE5NTgyMSwianRpIjoiYjI3M2UzZWItYjI5OC00NzQ3LWIzNTYtYjg0NGUyMDhiMjUzIiwiZXhwIjoxNTg1MjgyMjIxLCJpZGVudGl0eSI6IjgiLCJmcmVzaCI6ZmFsc2UsInR5cGUiOiJhY2Nlc3MifQ.aKRsBHIuErE4k3984hWq24Heco8AY2vjPqTA2s2SBZw",
							"type": "string"
						}
					]
				},
				"method": "DELETE",
				"header": [],
				"url": {
					"raw": "http://127.0.0.1:5000/user/8",
					"protocol": "http",
					"host": [
						"127",
						"0",
						"0",
						"1"
					],
					"port": "5000",
					"path": [
						"user",
						"8"
					]
				}
			},
			"response": []
		},
		{
			"name": "logout",
			"request": {
				"auth": {
					"type": "bearer",
					"bearer": [
						{
							"key": "token",
							"value": "eyJ0eXAiOiJKV1QiLCJhbGciOiJIUzI1NiJ9.eyJpYXQiOjE1ODUyMjI4NTMsIm5iZiI6MTU4NTIyMjg1MywianRpIjoiYjhkY2EyYTQtZmQwNC00ZmE3LTk5ODYtMDAxNmM4MWYzYWUzIiwiZXhwIjoxNTg1MzA5MjUzLCJpZGVudGl0eSI6IjYiLCJmcmVzaCI6ZmFsc2UsInR5cGUiOiJhY2Nlc3MifQ.u068iXzQcj8p2kKaDNaphghj9oL8SdxIevCQhrO2t7Y",
							"type": "string"
						}
					]
				},
				"method": "DELETE",
				"header": [],
				"url": {
					"raw": "http://127.0.0.1:5000/logout",
					"protocol": "http",
					"host": [
						"127",
						"0",
						"0",
						"1"
					],
					"port": "5000",
					"path": [
						"logout"
					]
				}
			},
			"response": []
		},
		{
			"name": "get all questions",
			"request": {
				"method": "GET",
				"header": [],
				"url": {
					"raw": "http://127.0.0.1:5000/questions",
					"protocol": "http",
					"host": [
						"127",
						"0",
						"0",
						"1"
					],
					"port": "5000",
					"path": [
						"questions"
					]
				}
			},
			"response": []
		},
		{
			"name": "get all questions by question id",
			"request": {
				"method": "GET",
				"header": [],
				"url": {
					"raw": "http://127.0.0.1:5000/questions/1",
					"protocol": "http",
					"host": [
						"127",
						"0",
						"0",
						"1"
					],
					"port": "5000",
					"path": [
						"questions",
						"1"
					]
				}
			},
			"response": []
		},
		{
			"name": "get all questions by user id",
			"request": {
				"method": "GET",
				"header": [],
				"url": {
					"raw": "http://127.0.0.1:5000/user/6/questions",
					"protocol": "http",
					"host": [
						"127",
						"0",
						"0",
						"1"
					],
					"port": "5000",
					"path": [
						"user",
						"6",
						"questions"
					]
				}
			},
			"response": []
		},
		{
			"name": "post a question",
			"request": {
				"auth": {
					"type": "bearer",
					"bearer": [
						{
							"key": "token",
							"value": "eyJ0eXAiOiJKV1QiLCJhbGciOiJIUzI1NiJ9.eyJpYXQiOjE1ODUyMTIwOTgsIm5iZiI6MTU4NTIxMjA5OCwianRpIjoiNzdiNjk4N2QtOThjOS00ZDEyLThhOTUtMjY2NzY3MWQ2OTE0IiwiZXhwIjoxNTg1Mjk4NDk4LCJpZGVudGl0eSI6IjYiLCJmcmVzaCI6ZmFsc2UsInR5cGUiOiJhY2Nlc3MifQ.Ani9hzd6yGOSL4wYlaJP4wsBdJXqGSyvA_uB0m0B-Ds",
							"type": "string"
						}
					]
				},
				"method": "POST",
				"header": [],
				"body": {
					"mode": "raw",
					"raw": "{\"title\":\"qwer123123213asadasdasdsds4ewrwerwerw\",\n\t\"description\":\"zxbcnmbxzcmb\"\n}",
					"options": {
						"raw": {
							"language": "json"
						}
					}
				},
				"url": {
					"raw": "http://127.0.0.1:5000/questions",
					"protocol": "http",
					"host": [
						"127",
						"0",
						"0",
						"1"
					],
					"port": "5000",
					"path": [
						"questions"
					]
				}
			},
			"response": []
		},
		{
			"name": "update question",
			"request": {
				"auth": {
					"type": "bearer",
					"bearer": [
						{
							"key": "token",
							"value": "eyJ0eXAiOiJKV1QiLCJhbGciOiJIUzI1NiJ9.eyJpYXQiOjE1ODUyMTE2MDksIm5iZiI6MTU4NTIxMTYwOSwianRpIjoiYmI1NDQ2MDgtOTZkOC00YzAzLTg2NjctZTBlNDU2Mjg5NTdmIiwiZXhwIjoxNTg1Mjk4MDA5LCJpZGVudGl0eSI6IjYiLCJmcmVzaCI6ZmFsc2UsInR5cGUiOiJhY2Nlc3MifQ.qJGSXBWqNJEpBUk_ekGAtmgPEyeFL3W2Pvk2wessS54",
							"type": "string"
						}
					]
				},
				"method": "PUT",
				"header": [],
				"body": {
					"mode": "raw",
					"raw": "{\n\t\"title\":\"change the title againasdasd\",\n\t\"description\":\"title changed\"\n}",
					"options": {
						"raw": {
							"language": "json"
						}
					}
				},
				"url": {
					"raw": "http://127.0.0.1:5000/questions/1",
					"protocol": "http",
					"host": [
						"127",
						"0",
						"0",
						"1"
					],
					"port": "5000",
					"path": [
						"questions",
						"1"
					]
				}
			},
			"response": []
		},
		{
			"name": "delete question",
			"request": {
				"auth": {
					"type": "noauth"
				},
				"method": "DELETE",
				"header": [
					{
						"key": "Cookie",
						"value": "eyJ0eXAiOiJKV1QiLCJhbGciOiJIUzI1NiJ9.eyJpYXQiOjE1ODU3NDAyMzUsIm5iZiI6MTU4NTc0MDIzNSwianRpIjoiYjZmMGViOWUtZTRiNC00YzNmLWE2NjMtN2Y5NWVhNjk2NjJiIiwiZXhwIjoxNTg1ODI2NjM1LCJpZGVudGl0eSI6IjYiLCJmcmVzaCI6ZmFsc2UsInR5cGUiOiJhY2Nlc3MifQ.F6CXabGPncJp4w6JsEQ3t4FWNVCtW3gnjHPB2J1SGlc",
						"type": "text"
					}
				],
				"url": {
					"raw": "http://127.0.0.1:5000/questions/1",
					"protocol": "http",
					"host": [
						"127",
						"0",
						"0",
						"1"
					],
					"port": "5000",
					"path": [
						"questions",
						"1"
					]
				}
			},
			"response": []
		},
		{
			"name": "Get answers bu question id",
			"request": {
				"method": "GET",
				"header": [],
				"url": {
					"raw": "http://127.0.0.1:5000/question/2/answer",
					"protocol": "http",
					"host": [
						"127",
						"0",
						"0",
						"1"
					],
					"port": "5000",
					"path": [
						"question",
						"2",
						"answer"
					]
				}
			},
			"response": []
		},
		{
			"name": "get questions by users",
			"request": {
				"method": "GET",
				"header": [],
				"url": {
					"raw": "http://127.0.0.1:5000/user/3/questions",
					"protocol": "http",
					"host": [
						"127",
						"0",
						"0",
						"1"
					],
					"port": "5000",
					"path": [
						"user",
						"3",
						"questions"
					]
				}
			},
			"response": []
		},
		{
			"name": "update answer(add token)",
			"request": {
				"auth": {
					"type": "noauth"
				},
				"method": "PUT",
				"header": [],
				"body": {
					"mode": "raw",
					"raw": "{\n\t\"answer_desc\" : \"this is a test to update answer\"\n}",
					"options": {
						"raw": {
							"language": "json"
						}
					}
				},
				"url": {
					"raw": "http://127.0.0.1:5000/answer/2",
					"protocol": "http",
					"host": [
						"127",
						"0",
						"0",
						"1"
					],
					"port": "5000",
					"path": [
						"answer",
						"2"
					]
				}
			},
			"response": []
		},
		{
			"name": "add answer(add token)",
			"request": {
				"auth": {
					"type": "noauth"
				},
				"method": "POST",
				"header": [],
				"body": {
					"mode": "raw",
					"raw": "{\n\t\"answer_desc\":\"this is a test answer for test question 2\"\n}",
					"options": {
						"raw": {
							"language": "json"
						}
					}
				},
				"url": {
					"raw": "http://127.0.0.1:5000/question/2/answer",
					"protocol": "http",
					"host": [
						"127",
						"0",
						"0",
						"1"
					],
					"port": "5000",
					"path": [
						"question",
						"2",
						"answer"
					]
				}
			},
			"response": []
		},
		{
			"name": "Delete answer(add token)",
			"request": {
				"auth": {
					"type": "noauth"
				},
				"method": "DELETE",
				"header": [],
				"body": {
					"mode": "raw",
					"raw": ""
				},
				"url": {
					"raw": "http://127.0.0.1:5000/answer/3",
					"protocol": "http",
					"host": [
						"127",
						"0",
						"0",
						"1"
					],
					"port": "5000",
					"path": [
						"answer",
						"3"
					]
				}
			},
			"response": []
		}
	],
	"protocolProfileBehavior": {}
}